Normal Endpoint Case with Assumed Known SD - Borrowing from an External Control Arm
…
Code

ps_model <- ~ cov1 + cov2 + cov3 + cov4
ps_obj <- calc_prop_scr(internal_df = filter(int_norm_df, trt == 0), 
                        external_df = ex_norm_df, 
                        id_col = subjid,
                        model = ps_model)

ps_obj
#> 
#> ── Model ───────────────────────────────────────────────────────────────────────
#> • cov1 + cov2 + cov3 + cov4
#> 
#> ── Propensity Scores and Weights ───────────────────────────────────────────────
#> # A tibble: 150 × 4
#>    subjid Internal `Propensity Score` `Inverse Probability Weight`
#>     <int> <lgl>                 <dbl>                        <dbl>
#>  1      1 FALSE                0.175                        0.212 
#>  2      2 FALSE                0.219                        0.281 
#>  3      3 FALSE                0.497                        0.990 
#>  4      4 FALSE                0.257                        0.347 
#>  5      5 FALSE                0.257                        0.347 
#>  6      6 FALSE                0.425                        0.740 
#>  7      7 FALSE                0.328                        0.489 
#>  8      8 FALSE                0.0833                       0.0908
#>  9      9 FALSE                0.165                        0.198 
#> 10     10 FALSE                0.196                        0.244 
#> # ℹ 140 more rows
…
